An R Package for AidData's Global Chinese Development Finance 3.0 Dataset • chinadevfin3
…
# Load the GCDF 2.0 dataset as a tibble, with standardized country names added at the beginning.
get_gcdf3_dataset()
#> # A tibble: 20,985 × 129
#>    country_name iso3c country_or_regional aid_data_record_id
#>    <chr>        <chr> <chr>                            <int>
#>  1 Afghanistan  AFG   country                          94556
#>  2 Afghanistan  AFG   country                          94564
#>  3 Afghanistan  AFG   country                          94565
#>  4 Afghanistan  AFG   country                          94567
#>  5 Afghanistan  AFG   country                          94568
#>  6 Afghanistan  AFG   country                          94613
#>  7 Afghanistan  AFG   country                          94619
#>  8 Afghanistan  AFG   country                          95312
#>  9 Afghanistan  AFG   country                          95322
#> 10 Afghanistan  AFG   country                          95323
#> # ℹ 20,975 more rows
#> # ℹ 125 more variables: recommended_for_aggregates <chr>,
#> #   aid_data_parent_id <chr>, umbrella <chr>, financier_country <chr>,
#> #   recipient <chr>, recipient_iso_3 <chr>, recipient_region <chr>,
#> #   commitment_year <int>, implementation_start_year <int>,
#> #   completion_year <int>, title <chr>, description <chr>,
#> #   staff_comments <chr>, status <chr>, intent <chr>, flow_type <chr>, …

gcdf3_data_dictionary contains AidData’s detailed data definitions for all of the GCDF 2.0 variables:

# Load the GCDF 2.0 data dictionary as a tibble
gcdf3_data_dictionary
#> # A tibble: 126 × 4
#>    column_name                column_class field_name                description
#>    <chr>                      <chr>        <chr>                     <chr>      
#>  1 aid_data_record_id         integer      AidData Record ID         "This fiel…
#>  2 recommended_for_aggregates character    Recommended For Aggregat… "This fiel…
#>  3 aid_data_parent_id         character    AidData Parent ID         "This fiel…
#>  4 umbrella                   character    Umbrella                  "This fiel…
#>  5 financier_country          character    Financier Country         "This fiel…
#>  6 recipient                  character    Recipient                 "This fiel…
#>  7 recipient_iso_3            character    Recipient ISO-3           "This fiel…
#>  8 recipient_region           character    Recipient Region          "This fiel…
#>  9 commitment_year            integer      Commitment Year           "This fiel…
#> 10 implementation_start_year  integer      Implementation Start Year "This fiel…
#> # ℹ 116 more rows
…
concessional_vs_non_concenssional
#> # A tibble: 66 × 4
#>    commitment_year flow_class               commitments label_for_chart 
#>              <int> <chr>                          <dbl> <chr>           
#>  1            2000 ODA-like                 1444567415. Concessional    
#>  2            2000 OOF-like                 3991855049. Non-Concessional
#>  3            2000 Vague (Official Finance)   12832284. Unclear         
#>  4            2001 ODA-like                 3497419010. Concessional    
#>  5            2001 OOF-like                 4164166662. Non-Concessional
#>  6            2001 Vague (Official Finance)  203504588. Unclear         
#>  7            2002 ODA-like                 2266910083. Concessional    
#>  8            2002 OOF-like                 4887766447. Non-Concessional
#>  9            2002 Vague (Official Finance)  428586041. Unclear         
#> 10            2003 ODA-like                 3523472591. Concessional    
#> # ℹ 56 more rows
…
